<?xml version="1.0"?>

<robot name="boey" xmlns:xacro="http://www.ros.org/wiki/xacro" >
  <xacro:arg name="debug" default="0"/>
  <xacro:arg name="namespace" default=""/>
  <xacro:arg name="suffix_ns" default="$(arg namespace)"/>

  <!-- Include the boey macro files -->
  <xacro:include filename="$(find boey_description)/urdf/simple_base.xacro"/>
  <xacro:boey_base namespace="$(arg suffix_ns)"/>
</robot>
